NY,2,STATEN ISLAND,2,2,NONE,40.5795,-74.1502
OK,2,OKLAHOMA CITY,2,2,NONE,35.452435,-97.494924
NY,2,BROOKLYN,2,2,NONE,40.6782,-73.9442
MO,2,SAINT LOUIS,2,2,NONE,38.6270,-90.1994
TN,2,NASHVILLE,2,2,NONE,36.1627,-86.7816
GA,2,AUGUSTA,2,2,NONE,33.4735,-82.0105
HI,2,HONOLULU,2,2,NONE,21.3069,-157.8583
FL,2,SAINT PETERSBURG,2,2,NONE,27.7518,-82.6267
FL,2,ST PETERSBURG,2,2,NONE,27.7518,-82.6267
UT,2,SALT LAKE CITY,2,2,NONE,40.7608,-111.8910
MO,2,KANSAS CITY,2,2,NONE,39.0997,-94.5786
NY,2,JAMAICA,2,2,NONE,40.7027,-73.7890
FL,2,PANAMA CITY,2,2,NONE,30.1766,-85.8055
HI,2,PAMA CITY,2,2,NONE,30.1766,-85.8055
CA,2,YUBA CITY,2,2,NONE,39.1404,-121.6169
KY,2,LEXINGTON,2,2,NONE,38.0406,-84.5037
NY,2,QUEENS VILLAGE,2,2,NONE,40.7157,-73.7419
CA,2,WOODLAND HILLS,2,2,NONE,34.1654,-118.6090
CA,2,WOODLAND HLS,2,2,NONE,34.1654,-118.6090
CA,2,NORTHRIDGE,2,2,NONE,34.2381,-118.5301
NY,2,FOREST HILLS,2,2,NONE,40.7181,-73.8448
NY,2,FLUSHING,2,2,NONE,40.7675,-73.8331
NY,2,BRONX,2,2,NONE,40.8448,-73.8648
NC,2,WINSTON SALEM,2,2,NONE,36.0999,-80.2442
TN,2,JOHNSON CITY,2,2,NONE,36.3134,-82.3535
CA,2,LA JOLLA,2,2,NONE,32.8328,-117.2713
NJ,2,JERSEY CITY,2,2,NONE,40.7282,-74.0776
NJ,2,WEST ORANGE,2,2,N,40.7986,-74.2391
NJ,2,EDISON,2,2,N,40.5187,-74.4121
PR,2,BAYAMON,2,2,N,18.3692,-66.1660
GA,2,ATHENS,2,2,N,33.9519,-83.3576
MI,2,TRAVERSE CITY,2,2,N,44.7631,-85.6206
CA,2,ENCINO,2,2,N,34.1517,-118.5214
CA,2,TARZANA,2,2,N,34.1495,-118.5506
NY,2,GARDEN CITY,2,2,N,40.7268,-73.6343
MO,2,JEFFERSON CITY,2,2,N,38.5767,-92.1735
IA,2,IOWA CITY,2,2,N,41.6611,-91.5302
MN,2,SAINT PAUL,2,2,N,44.9537,-93.0900
KS,2,KANSAS CITY,2,2,N,39.1141,-94.6275
NJ,2,LIVINGSTON,2,2,N,40.7863,-74.3301
PR,2,MAYAGUEZ,2,2,N,18.2013,-67.1452
CA,2,VENTURA,2,2,N,34.2746,-119.2290
